Unstructured          : Grid type (Structured vs. Unstructured)
0.04                  : Initial grid spacing (H0)
50000                 : Maximum allowed iterations
0                     : Create a submesh with given integer refinement factor
----------------------------------------------------------------
Bounding box:
-1.0e0                : xmin
 1.0e0                : xmax
-1.0e0                : ymin
 1.0e0                : ymax
----------------------------------------------------------------
20                    : Number of fixed points
----------------------------------------------------------------
Fixed points (x y):
     7.500000000000000e-01     0.000000000000000e-00
     9.510565162951535e-01     3.090169943749474e-01
     6.067627457812106e-01     4.408389392193549e-01
     2.938926261462366e-01     4.045084971874737e-01
     2.317627457812106e-01     7.132923872213650e-01
     0.000000000000000e-00     1.000000000000000e+00
    -2.317627457812105e-01     7.132923872213653e-01
    -2.938926261462365e-01     4.045084971874737e-01
    -6.067627457812104e-01     4.408389392193549e-01
    -9.510565162951535e-01     3.090169943749475e-01
    -7.500000000000001e-01     0.000000000000000e-00
    -4.755282581475769e-01    -1.545084971874734e-01
    -6.067627457812104e-01    -4.408389392193546e-01
    -5.877852522924732e-01    -8.090169943749473e-01
    -2.317627457812107e-01    -7.132923872213653e-01
     0.000000000000000e-00    -5.000000000000000e-01
     2.317627457812104e-01    -7.132923872213650e-01
     5.877852522924729e-01    -8.090169943749476e-01
     6.067627457812107e-01    -4.408389392193551e-01
     4.755282581475768e-01    -1.545084971874738e-01
