Structured            : Grid type (Structured vs. Unstructured)
0.1                   : Initial grid spacing (H0)
50000                 : Maximum allowed iterations
----------------------------------------------------------------
Bounding box:
 0.0e0                 : xmin
 1.0e0                 : xmax
 0.0e0                 : ymin
 1.0e0                 : ymax
 0.0e0                 : zmin
 1.0e0                 : zmax
----------------------------------------------------------------
26                     : Number of fixed points
----------------------------------------------------------------
Fixed points (x y z):
     0.000000000000000e-00     0.000000000000000e-00     0.000000000000000e-00
     1.000000000000000e-00     0.000000000000000e-00     0.000000000000000e-00
     0.000000000000000e-00     1.000000000000000e-00     0.000000000000000e-00
     0.000000000000000e-00     0.000000000000000e-00     1.000000000000000e-00
     1.000000000000000e-00     1.000000000000000e-00     0.000000000000000e-00
     1.000000000000000e-00     0.000000000000000e-00     1.000000000000000e-00
     0.000000000000000e-00     1.000000000000000e-00     1.000000000000000e-00
     1.000000000000000e-00     1.000000000000000e-00     1.000000000000000e-00
     0.500000000000000e-00     0.500000000000000e-00     0.000000000000000e-00
     0.500000000000000e-00     0.500000000000000e-00     1.000000000000000e-00
     0.500000000000000e-00     0.000000000000000e-00     0.500000000000000e-00
     0.500000000000000e-00     1.000000000000000e-00     0.500000000000000e-00
     0.000000000000000e-00     0.500000000000000e-00     0.500000000000000e-00
     1.000000000000000e-00     0.500000000000000e-00     0.500000000000000e-00
     1.000000000000000e-00     0.000000000000000e-00     0.500000000000000e-00
     0.000000000000000e-00     0.000000000000000e-00     0.500000000000000e-00
     0.500000000000000e-00     0.000000000000000e-00     1.000000000000000e-00
     0.500000000000000e-00     0.000000000000000e-00     0.000000000000000e-00
     0.500000000000000e-00     1.000000000000000e-00     1.000000000000000e-00
     0.500000000000000e-00     1.000000000000000e-00     0.000000000000000e-00
     1.000000000000000e-00     1.000000000000000e-00     0.500000000000000e-00
     0.000000000000000e-00     1.000000000000000e-00     0.500000000000000e-00
     0.000000000000000e-00     0.500000000000000e-00     1.000000000000000e-00
     0.000000000000000e-00     0.500000000000000e-00     0.000000000000000e-00
     1.000000000000000e-00     0.500000000000000e-00     1.000000000000000e-00
     1.000000000000000e-00     0.500000000000000e-00     0.000000000000000e-00
     